{
  "project_info": {
    "project_number": "761929782497",
    "firebase_url": "https://exam-simulator-f793b.firebaseio.com",
    "project_id": "exam-simulator-f793b",
    "storage_bucket": "exam-simulator-f793b.appspot.com"
  },
  "client": [
    {
      "client_info": {
        "mobilesdk_app_id": "1:761929782497:android:e029c26f54d07c8c",
        "android_client_info": {
          "package_name": "com.globalskills.examsimulator"
        }
      },
      "oauth_client": [
        {
          "client_id": "761929782497-3fjam5fjtveq70eqpqcg11db5nrjefsm.apps.googleusercontent.com",
          "client_type": 1,
          "android_info": {
            "package_name": "com.globalskills.examsimulator",
            "certificate_hash": "b67a72c4514ba6f9cc25ad3d50b2ee944d81ecee"
          }
        },
        {
          "client_id": "761929782497-62csl03a5himr6qaeg43s9lcidrkpuhl.apps.googleusercontent.com",
          "client_type": 1,
          "android_info": {
            "package_name": "com.globalskills.examsimulator",
            "certificate_hash": "27406091031f3e6a2f079765ac63e1c0d1a252b9"
          }
        },
        {
          "client_id": "761929782497-vpb3svr1ig3hvktskhkki7qfjbs4g9ur.apps.googleusercontent.com",
          "client_type": 1,
          "android_info": {
            "package_name": "com.globalskills.examsimulator",
            "certificate_hash": "2494bec7926dd2b447e0b27713571dfa03c1caad"
          }
        },
        {
          "client_id": "761929782497-03if2nk21b9tf2ditn4fg5ss999psg9q.apps.googleusercontent.com",
          "client_type": 3
        }
      ],
      "api_key": [
        {
          "current_key": "AIzaSyBKdKMJfM82PGuEnnkvixWjgunTjLJOYyY"
        },
        {
          "current_key": "AIzaSyDGO4Qrs97m7f8JZa-INIi6IVl3h5hI_JA"
        },
        {
          "current_key": "AIzaSyAYazCz5mSZiTb2CFtZkHzPMdAAKoKLx0Y"
        },
        {
          "current_key": "AIzaSyD5WEh4AyGmFZZgZ0ADnF6AbbUSUo9E82M"
        },
        {
          "current_key": "AIzaSyCsTEq67XM3dpw_SY8zuz9YftX2DqvQUaw"
        }
      ],
      "services": {
        "analytics_service": {
          "status": 1
        },
        "appinvite_service": {
          "status": 2,
          "other_platform_oauth_client": [
            {
              "client_id": "761929782497-03if2nk21b9tf2ditn4fg5ss999psg9q.apps.googleusercontent.com",
              "client_type": 3
            }
          ]
        },
        "ads_service": {
          "status": 2
        }
      }
    }
  ],
  "configuration_version": "1"
}